; KISSlicer - FREE
; Linux
; version 1.1.0.14
; Built: May  8 2013, 12:05:59
; Running on 8 cores
;
; Saved: Thu Aug 14 19:36:48 2014
; 'a.gcode'
;
; *** Printer Settings ***
;
; printer_name = Prusa i3 - Emil
; bed_STL_filename = 
; extension = gcode
; cost_per_hour = 0
; g_code_prefix = 3B205B6D6D5D206D6F64650A4732310A3B206162736F
;     6C757465206D6F64650A4739300A3B20537461727420746865206661
;     6E210A4D31303620533235350A3B20486F6D65207468652061786973
;     0A4732382058595A0A3B2041736B20666F722074656D706572617475
;     7265730A3B20486F74656E640A4D31303420533C54454D503E0A4D31
;     343020533C4245443E0A3B205761697420666F722074656D70657261
;     74757265730A3B204D3131360A
; g_code_warm = 3B20436F6D6D656E74
; g_code_cool = 3B20436F6D6D656E74
; g_code_N_layers = 3B204D617962652072652D686F6D65205820262059
;     3F
; g_code_postfix = 3B20416C6C207573656420657874727564657273206
;     1726520616C72656164792027436F6F6C65642720746F20300A
; post_process = NULL
; every_N_layers = 0
; num_extruders = 1
; firmware_type = 2
; add_comments = 1
; fan_on = M106
; fan_off = M107
; fan_pwm = 1
; add_m101_g10 = 0
; z_speed_mm_per_s = 3.5
; z_settle_mm = 0
; bed_size_x_mm = 200
; bed_size_y_mm = 200
; bed_size_z_mm = 200
; bed_offset_x_mm = 0
; bed_offset_y_mm = 0
; bed_offset_z_mm = 0
; bed_roughness_mm = 0
; travel_speed_mm_per_s = 500
; first_layer_speed_mm_per_s = 15
; dmax_per_layer_mm_per_s = 50
; xy_accel_mm_per_s_per_s = 1500
; lo_speed_perim_mm_per_s = 30
; lo_speed_solid_mm_per_s = 30
; lo_speed_sparse_mm_per_s = 30
; hi_speed_perim_mm_per_s = 120
; hi_speed_solid_mm_per_s = 120
; hi_speed_sparse_mm_per_s = 120
; ext_gain_1 = 1
; ext_material_1 = 15
; ext_axis_1 = 0
; ext_gain_2 = 1
; ext_material_2 = 0
; ext_axis_2 = 0
; ext_gain_3 = 1
; ext_material_3 = 0
; ext_axis_3 = 0
; model_ext = 0
; support_ext = 0
; support_body_ext = 0
; raft_ext = 0
; solid_loop_overlap_fraction = 0.5
;
; *** Material Settings for Extruder 1 ***
;
; material_name = ABS-3.0mm-White-OSAA
; g_code_matl = 3B204D617962652073657420736F6D65206D6174657269
;     616C2D737065636966696320472D636F64653F
; fan_Z_mm = 0
; fan_loops_percent = 0
; fan_inside_percent = 0
; fan_cool_percent = 0
; temperature_C = 210
; keep_warm_C = 210
; first_layer_C = 210
; bed_C = 115
; sec_per_C_per_C = 0
; flow_min_mm3_per_s = 0.01
; flow_max_mm3_per_s = 10
; destring_suck = 2
; destring_prime = 2
; destring_min_mm = 1
; destring_trigger_mm = 100
; destring_speed_mm_per_s = 15
; Z_lift_mm = 0.15
; min_layer_time_s = 25
; wipe_mm = 10
; cost_per_cm3 = 0
; flowrate_tweak = 0.85
; fiber_dia_mm = 3
; color = 4227071744
;
; *** Style Settings ***
;
; style_name = Normal
; layer_thickness_mm = 0.2
; extrusion_width_mm = 0.44
; num_loops = 2
; skin_thickness_mm = 0.6
; infill_extrusion_width = 0.44
; infill_density_denominator = 3
; stacked_layers = 1
; use_destring = 1
; use_wipe = 0
; loops_insideout = 0
; infill_st_oct_rnd = 0
; inset_surface_xy_mm = 0
; seam_jitter_degrees = 360
; seam_depth_scaler = 0
;
; *** Support Settings ***
;
; support_name = Ingen Support
; support_sheathe = 0
; support_density = 0
; support_inflate_mm = 0
; support_gap_mm = 0.5
; support_angle_deg = 0
; support_z_max_mm = -1
; sheathe_z_max_mm = -1
; raft_mode = 1
; prime_pillar_mode = 0
; raft_inflate_mm = 1
;
; *** Actual Slicing Settings As Used ***
;
; layer_thickness_mm = 0.2
; extrusion_width = 0.44
; num_ISOs = 2
; wall_thickness = 0.6
; infill_style = 4
; support_style = 0
; support_angle = -0.1
; destring_min_mm = 1
; stacked_infill_layers = 1
; raft_style = 1
; extra_raft_depth = 0
; oversample_res_mm = 0.125
; crowning_threshold_mm = 1
; loops_insideout = 0
; solid_loop_overlap_fraction = 0.5
; inflate_raft_mm = 1
; inflate_support_mm = 0
; model_support_gap_mm = 0.5
; infill_st_oct_rnd = 0
; support_Z_max_mm = 1e+20
; sheathe_Z_max_mm = 0
; inset_surface_xy_mm = 0
; seam_jitter_degrees = 360
; seam_depth_scaler = 0
; Speed vs Quality = 0.00
; Perimeter Speed = 120.00
; Solid Speed = 120.00
; Sparse Speed = 120.00
;
; *** G-code Prefix ***
;
; [mm] mode
G21
; absolute mode
G90
; Start the fan!
M106 S255
; Home the axis
G28 XYZ
; Ask for temperatures
; Hotend
M104 S210
M140 S115
; Wait for temperatures
; M116

;
; *** Main G-code ***
;
; Reset extruder pos
G92 E0
; BEGIN_LAYER_OBJECT z=0.20
;
; *** Warming Extruder 1 to 210 C ***
; Comment
;
G92 E0
;
;
; 'Skirt', 0.3 [feed mm/s], 15.0 [head mm/s]
G1 X15.47 Y15.5 Z0.35 E0 F30000
G1 X15.47 Y15.5 Z0.2 E0 F210
G1 E2 F900
G1 X15.13 Y15.77 E2.0094 F900
G1 X14.68 Y15.97 E2.0198
G1 X14.17 Y16.04 E2.0306
G1 X-5.49 Y16.03 E2.4467
G1 X-5.99 Y15.96 E2.4574
G1 X-6.44 Y15.75 E2.4677
G1 X-6.78 Y15.48 E2.4771
G1 X-7.1 Y15.17 E2.4864
G1 X-7.37 Y14.82 E2.4958
G1 X-7.57 Y14.37 E2.5062
G1 X-7.64 Y13.87 E2.517
G1 X-7.63 Y4.52 E2.7149
G1 X-8.16 Y4.44 E2.7262
G1 X-8.61 Y4.24 E2.7367
G1 X-9.12 Y4.12 E2.7477
G1 X-9.55 Y3.93 E2.7576
G1 X-10.05 Y3.81 E2.7686
G1 X-10.47 Y3.62 E2.7784
G1 X-10.8 Y3.36 E2.7872
G1 X-11.7 Y3.01 E2.8076
G1 X-12.07 Y2.72 E2.8175
G1 X-14.24 Y0.54 E2.8827
G1 X-14.53 Y0.17 E2.8926
G1 X-14.87 Y-0.72 E2.9127
G1 X-15.14 Y-1.05 E2.9218
G1 X-15.32 Y-1.47 E2.9315
G1 X-15.44 Y-1.98 E2.9426
G1 X-15.63 Y-2.41 E2.9524
G1 X-15.76 Y-2.91 E2.9635
G1 X-15.96 Y-3.37 E2.974
G1 X-16.03 Y-3.87 E2.9848
G1 X-16.02 Y-7.98 E3.0717
G1 X-15.95 Y-8.48 E3.0824
G1 X-15.75 Y-8.93 E3.0929
G1 X-15.63 Y-9.44 E3.1038
G1 X-15.44 Y-9.86 E3.1136
G1 X-15.18 Y-10.19 E3.1225
G1 X-14.83 Y-11.08 E3.1429
G1 X-14.54 Y-11.45 E3.1527
G1 X-11.43 Y-14.56 E3.2459
G1 X-11.06 Y-14.85 E3.2558
G1 X-10.17 Y-15.19 E3.276
G1 X-9.84 Y-15.46 E3.285
G1 X-9.41 Y-15.65 E3.295
G1 X-9.19 Y-15.69 E3.2997
G1 X-8.3 Y-15.76 E3.3185
G1 X-7.83 Y-15.97 E3.3294
G1 X-7.33 Y-16.03 E3.3401
G1 X-3.84 Y-16.03 E3.4139
G1 X-3.34 Y-15.96 E3.4246
G1 X-2.89 Y-15.76 E3.4351
G1 X-2.39 Y-15.64 E3.4461
G1 X-1.96 Y-15.45 E3.456
G1 X-1.45 Y-15.33 E3.467
G1 X-1.03 Y-15.14 E3.4768
G1 X-0.68 Y-14.86 E3.4861
G1 X-0.38 Y-14.56 E3.4951
G1 X0.51 Y-14.22 E3.5153
G1 X0.87 Y-13.93 E3.5252
G1 X2.43 Y-12.37 E3.5717
G1 X2.72 Y-12 E3.5817
G1 X3.06 Y-11.12 E3.6017
G1 X3.36 Y-10.82 E3.6108
G1 X3.63 Y-10.47 E3.6202
G1 X3.82 Y-10.05 E3.6299
G1 X3.94 Y-9.54 E3.6409
G1 X4.13 Y-9.11 E3.6508
G1 X4.25 Y-8.61 E3.6619
G1 X4.45 Y-8.15 E3.6724
G1 X4.53 Y-7.63 E3.6836
G1 X13.89 Y-7.62 E3.8817
G1 X14.38 Y-7.55 E3.8923
G1 X14.83 Y-7.35 E3.9027
G1 X15.18 Y-7.07 E3.9121
G1 X15.49 Y-6.76 E3.9214
G1 X15.76 Y-6.41 E3.9308
G1 X15.96 Y-5.97 E3.9412
G1 X16.03 Y-5.46 E3.952
G1 X16.02 Y14.2 E4.3681
G1 X15.95 Y14.7 E4.3788
G1 X15.75 Y15.15 E4.3892
G1 X15.47 Y15.5 E4.3985
;
; 'Wipe (and De-string)', 0.0 [feed mm/s], 15.0 [head mm/s]
G1 E2.3985 F900
G1 X15.47 Y15.5 Z0.35 E2.3985 F210
;
; 'Perimeter', 0.2 [feed mm/s], 15.0 [head mm/s]
G1 X14 Y14.02 E2.3985 F30000
G1 X14 Y14.02 Z0.2 E2.3985 F210
G1 E4.3985 F900
G1 X13.98 Y14.02 E4.3987 F900
G1 X-5.47 Y14.02 E4.6046
G1 X-5.52 Y13.91 E4.6058
G1 X-5.52 Y2.71 E4.7243
G1 X-5.66 Y2.57 E4.7264
G1 X-5.79 Y2.52 E4.7279
G1 X-6.76 Y2.45 E4.7382
G1 X-7.72 Y2.27 E4.7485
G1 X-8.69 Y1.97 E4.7593
G1 X-9.62 Y1.55 E4.7701
G1 X-10.42 Y1.07 E4.78
G1 X-11.22 Y0.44 E4.7907
G1 X-11.95 Y-0.3 E4.8017
G1 X-12.57 Y-1.09 E4.8123
G1 X-13.06 Y-1.89 E4.8223
G1 X-13.47 Y-2.82 E4.8331
G1 X-13.78 Y-3.79 E4.8438
G1 X-13.95 Y-4.77 E4.8543
G1 X-14.02 Y-5.77 E4.865
G1 X-13.95 Y-6.77 E4.8755
G1 X-13.77 Y-7.72 E4.8857
G1 X-13.47 Y-8.69 E4.8965
G1 X-13.05 Y-9.62 E4.9073
G1 X-12.57 Y-10.42 E4.9172
G1 X-11.94 Y-11.21 E4.9279
G1 X-11.2 Y-11.96 E4.939
G1 X-10.41 Y-12.57 E4.9496
G1 X-9.61 Y-13.06 E4.9595
G1 X-8.68 Y-13.48 E4.9704
G1 X-7.71 Y-13.78 E4.9811
G1 X-6.74 Y-13.95 E4.9915
G1 X-5.74 Y-14.02 E5.0021
G1 X-4.74 Y-13.95 E5.0127
G1 X-3.79 Y-13.78 E5.0229
G1 X-2.82 Y-13.47 E5.0337
G1 X-1.88 Y-13.05 E5.0445
G1 X-1.08 Y-12.56 E5.0545
G1 X-0.26 Y-11.92 E5.0655
G1 X0.45 Y-11.21 E5.0762
G1 X1.08 Y-10.41 E5.0869
G1 X1.55 Y-9.63 E5.0966
G1 X1.96 Y-8.71 E5.1072
G1 X2.27 Y-7.71 E5.1183
G1 X2.45 Y-6.75 E5.1287
G1 X2.52 Y-5.77 E5.139
G1 X2.63 Y-5.58 E5.1413
G1 X2.73 Y-5.52 E5.1425
G1 X13.93 Y-5.52 E5.2611
G1 X14.02 Y-5.45 E5.2623
G1 X14.01 Y13.88 E5.4668
G1 X14 Y14 E5.4681
G1 X14 Y14.02 E5.4683
;
; 'Loop', 0.2 [feed mm/s], 15.0 [head mm/s]
G1 X13.55 Y13.57 E5.4683 F30000
G1 X-5.03 Y13.57 E5.665 F900
G1 X-5.07 Y13.46 E5.6662
G1 X-5.07 Y2.71 E5.78
G1 X-5.19 Y2.39 E5.7836
G1 X-5.45 Y2.17 E5.7872
G1 X-5.77 Y2.07 E5.7907
G1 X-6.69 Y2.01 E5.8005
G1 X-7.61 Y1.85 E5.8104
G1 X-8.54 Y1.55 E5.8207
G1 X-9.4 Y1.17 E5.8307
G1 X-10.19 Y0.69 E5.8405
G1 X-10.94 Y0.09 E5.8506
G1 X-11.6 Y-0.56 E5.8604
G1 X-12.19 Y-1.32 E5.8706
G1 X-12.67 Y-2.11 E5.8804
G1 X-13.06 Y-2.97 E5.8904
G1 X-13.35 Y-3.91 E5.9008
G1 X-13.51 Y-4.83 E5.9107
G1 X-13.57 Y-5.76 E5.9206
G1 X-13.51 Y-6.69 E5.9304
G1 X-13.35 Y-7.61 E5.9403
G1 X-13.06 Y-8.54 E5.9506
G1 X-12.67 Y-9.4 E5.9606
G1 X-12.19 Y-10.19 E5.9704
G1 X-11.59 Y-10.94 E5.9805
G1 X-10.94 Y-11.6 E5.9904
G1 X-10.18 Y-12.19 E6.0005
G1 X-9.39 Y-12.67 E6.0103
G1 X-8.52 Y-13.06 E6.0203
G1 X-7.6 Y-13.35 E6.0306
G1 X-6.68 Y-13.51 E6.0405
G1 X-5.74 Y-13.57 E6.0505
G1 X-4.79 Y-13.51 E6.0605
G1 X-3.9 Y-13.35 E6.0701
G1 X-2.97 Y-13.06 E6.0804
G1 X-2.11 Y-12.67 E6.0904
G1 X-1.32 Y-12.19 E6.1002
G1 X-0.56 Y-11.59 E6.1104
G1 X0.14 Y-10.9 E6.1208
G1 X0.76 Y-10.1 E6.1315
G1 X1.19 Y-9.37 E6.1405
G1 X1.21 Y-9.34 E6.1409
G1 X1.61 Y-8.43 E6.1515
G1 X1.66 Y-8.19 E6.154
G1 X1.85 Y-7.61 E6.1605
G1 X2.01 Y-6.72 E6.1701
G1 X2.08 Y-5.68 E6.181
G1 X2.31 Y-5.25 E6.1862
G1 X2.68 Y-5.08 E6.1905
G1 X3.21 Y-5.07 E6.1962
G1 X13.49 Y-5.07 E6.3049
G1 X13.57 Y-5 E6.3061
G1 X13.57 Y13.44 E6.5012
G1 X13.55 Y13.57 E6.5026
;
; 'Solid', 0.2 [feed mm/s], 15.0 [head mm/s]
G1 X12.89 Y13.24 E6.5026 F30000
G1 X13.17 Y12.97 E6.5067 F900
G1 X13.17 Y12.34 E6.5134
G1 X12.34 Y13.18 E6.5259
G1 X11.71 Y13.18 E6.5325
G1 X13.18 Y11.72 E6.5544
G1 X13.17 Y11.09 E6.561
G1 X11.09 Y13.18 E6.5921
G1 X10.47 Y13.18 E6.5987
G1 X13.18 Y10.47 E6.6392
G1 X13.18 Y9.85 E6.6458
G1 X9.84 Y13.18 E6.6956
G1 X9.22 Y13.18 E6.7022
G1 X13.18 Y9.23 E6.7613
G1 X13.18 Y8.61 E6.7679
G1 X8.6 Y13.18 E6.8363
G1 X7.98 Y13.18 E6.8429
G1 X13.18 Y7.98 E6.9207
G1 X13.18 Y7.36 E6.9273
G1 X7.35 Y13.18 E7.0143
G1 X6.73 Y13.18 E7.0209
G1 X13.18 Y6.74 E7.1173
G1 X13.18 Y6.12 E7.1238
G1 X6.11 Y13.18 E7.2295
G1 X5.49 Y13.18 E7.2361
G1 X13.18 Y5.5 E7.3511
G1 X13.18 Y4.88 E7.3577
G1 X4.86 Y13.18 E7.482
G1 X4.24 Y13.18 E7.4886
G1 X13.18 Y4.25 E7.6222
G1 X13.18 Y3.63 E7.6287
G1 X3.62 Y13.18 E7.7717
G1 X3 Y13.18 E7.7783
G1 X13.18 Y3.01 E7.9305
G1 X13.18 Y2.39 E7.9371
G1 X2.37 Y13.18 E8.0986
G1 X1.75 Y13.18 E8.1052
G1 X13.18 Y1.77 E8.2761
G1 X13.18 Y1.14 E8.2827
G1 X1.13 Y13.18 E8.4628
G1 X0.51 Y13.18 E8.4694
G1 X13.18 Y0.52 E8.6589
G1 X13.18 Y-0.1 E8.6655
G1 X-0.12 Y13.18 E8.8643
G1 X-0.74 Y13.18 E8.8709
G1 X13.18 Y-0.72 E9.079
G1 X13.18 Y-1.34 E9.0856
G1 X-1.36 Y13.18 E9.303
G1 X-1.99 Y13.18 E9.3096
G1 X13.18 Y-1.96 E9.5363
G1 X13.18 Y-2.59 E9.5429
G1 X-2.61 Y13.18 E9.779
G1 X-3.23 Y13.18 E9.7855
G1 X13.18 Y-3.21 E10.0309
G1 X13.18 Y-3.83 E10.0375
G1 X-3.85 Y13.18 E10.2922
G1 X-4.48 Y13.18 E10.2987
G1 X13.19 Y-4.47 E10.563
G1 X12.79 Y-4.69 E10.5678
G1 X-4.67 Y12.75 E10.829
G1 X-4.67 Y12.13 E10.8356
G1 X12.15 Y-4.67 E11.0873
G1 X11.53 Y-4.67 E11.0939
G1 X-4.67 Y11.51 E11.3362
G1 X-4.67 Y10.89 E11.3428
G1 X10.91 Y-4.67 E11.5758
G1 X10.28 Y-4.67 E11.5824
G1 X-4.67 Y10.26 E11.8061
G1 X-4.67 Y9.64 E11.8126
G1 X9.66 Y-4.67 E12.027
G1 X9.04 Y-4.67 E12.0336
G1 X-4.67 Y9.02 E12.2387
G1 X-4.67 Y8.4 E12.2453
G1 X8.42 Y-4.67 E12.441
G1 X7.79 Y-4.67 E12.4476
G1 X-4.67 Y7.78 E12.6341
G1 X-4.67 Y7.15 E12.6406
G1 X7.17 Y-4.67 E12.8178
G1 X6.55 Y-4.67 E12.8244
G1 X-4.67 Y6.53 E12.9922
G1 X-4.67 Y5.91 E12.9988
G1 X5.93 Y-4.67 E13.1573
G1 X5.3 Y-4.67 E13.1639
G1 X-4.67 Y5.29 E13.3131
G1 X-4.67 Y4.67 E13.3197
G1 X4.68 Y-4.67 E13.4596
G1 X4.06 Y-4.67 E13.4661
G1 X-4.67 Y4.05 E13.5967
G1 X-4.67 Y3.42 E13.6033
G1 X3.43 Y-4.67 E13.7246
G1 X2.81 Y-4.67 E13.7312
G1 X-4.68 Y2.81 E13.8433
G1 X-4.79 Y2.29 E13.8488
G1 X2.31 Y-4.8 E13.955
G1 X1.97 Y-5.07 E13.9597
G1 X-5.07 Y1.95 E14.0649
G1 X-5.48 Y1.74 E14.0698
G1 X1.73 Y-5.46 E14.1777
G1 X1.66 Y-6.01 E14.1835
G1 X-6.02 Y1.66 E14.2984
G1 X-6.6 Y1.61 E14.3045
G1 X1.62 Y-6.59 E14.4274
G1 X1.53 Y-7.13 E14.4331
G1 X-7.14 Y1.53 E14.5628
G1 X-7.64 Y1.42 E14.5683
G1 X1.42 Y-7.64 E14.7039
G1 X1.28 Y-8.12 E14.7092
G1 X-8.12 Y1.27 E14.8498
G1 X-8.57 Y1.1 E14.8549
G1 X1.13 Y-8.59 E15
G1 X0.95 Y-9.03 E15.0051
G1 X-9.01 Y0.91 E15.154
G1 X-9.41 Y0.69 E15.1589
G1 X0.72 Y-9.42 E15.3104
G1 X0.49 Y-9.81 E15.3152
G1 X-9.8 Y0.46 E15.469
G1 X-10.16 Y0.2 E15.4737
G1 X0.21 Y-10.16 E15.6289
G1 X-0.06 Y-10.51 E15.6336
G1 X-10.51 Y-0.07 E15.79
G1 X-10.84 Y-0.37 E15.7946
G1 X-0.36 Y-10.83 E15.9514
G1 X-0.67 Y-11.15 E15.9561
G1 X-11.15 Y-0.68 E16.1129
G1 X-11.45 Y-1.01 E16.1175
G1 X-1 Y-11.44 E16.2738
G1 X-1.35 Y-11.71 E16.2785
G1 X-11.72 Y-1.36 E16.4335
G1 X-11.97 Y-1.72 E16.4383
G1 X-1.71 Y-11.97 E16.5917
G1 X-2.1 Y-12.2 E16.5965
G1 X-12.21 Y-2.11 E16.7476
G1 X-12.42 Y-2.52 E16.7525
G1 X-2.51 Y-12.42 E16.9007
G1 X-2.94 Y-12.61 E16.9057
G1 X-12.61 Y-2.95 E17.0503
G1 X-12.78 Y-3.4 E17.0555
G1 X-3.4 Y-12.78 E17.1958
G1 X-3.87 Y-12.92 E17.2011
G1 X-12.92 Y-3.88 E17.3365
G1 X-13.04 Y-4.39 E17.342
G1 X-4.39 Y-13.03 E17.4713
G1 X-4.92 Y-13.12 E17.4771
G1 X-13.12 Y-4.93 E17.5997
G1 X-13.16 Y-5.51 E17.6058
G1 X-5.51 Y-13.15 E17.7202
G1 X-6.13 Y-13.15 E17.7268
G1 X-13.15 Y-6.15 E17.8317
G1 X-13.09 Y-6.83 E17.8389
G1 X-6.83 Y-13.08 E17.9325
G1 X-7.59 Y-12.94 E17.9407
G1 X-12.92 Y-7.62 E18.0204
G1 X-12.65 Y-8.51 E18.0303
G1 X-8.4 Y-12.75 E18.0939
;
; 'Solid', 0.2 [feed mm/s], 15.0 [head mm/s]
G1 X-9.65 Y-12.12 E18.0939 F30000
G1 X-12.07 Y-9.71 E18.13 F900
